…
```r
sum_steps <- activity %>% filter(!is.na(steps)) %>% group_by(date) %>% 
    summarise(tot_steps = sum(steps))
```

```
## Warning: package 'bindrcpp' was built under R version 3.3.3
```

```r
arrange(sum_steps, desc(tot_steps))
```

```
## # A tibble: 53 x 2
##    date       tot_steps
##    <date>         <int>
##  1 2012-11-23     21194
##  2 2012-11-22     20427
##  3 2012-10-12     17382
##  4 2012-10-06     15420
##  5 2012-10-31     15414
##  6 2012-11-18     15110
##  7 2012-10-14     15098
##  8 2012-10-16     15084
##  9 2012-11-24     14478
## 10 2012-11-17     14339
## # ... with 43 more rows
```
…
## What is the average daily activity pattern?
### First calculate the sums of steps per interval

```r
steps_interval <- activity %>% filter(!is.na(steps)) %>% group_by(interval) %>% 
    summarise(mean_steps_int = mean(steps))
arrange(steps_interval, desc(mean_steps_int))
```

```
## # A tibble: 288 x 2
##    interval mean_steps_int
##       <int>          <dbl>
##  1      835           206.
##  2      840           196.
##  3      850           183.
##  4      845           180.
##  5      830           177.
##  6      820           171.
##  7      855           167.
##  8      815           158.
##  9      825           155.
## 10      900           143.
## # ... with 278 more rows
```
…
